Mapping and Spatial Analysis in R!
…
.pull-left[

Read our CPS backscatter data and view

```r
# Read data file
cps <- read_csv(here("Data/cps.csv")) %>% 
  select(transect, interval, everything())

# View data
cps
```

```
## # A tibble: 61,353 x 5
##    transect interval  long   lat  nasc
##       <dbl>    <dbl> <dbl> <dbl> <dbl>
##  1        1        1 -121.  35.4     0
##  2        1        2 -121.  35.4     0
##  3        1        3 -121.  35.4     0
##  4        1        4 -121.  35.4     0
##  5        1        5 -121.  35.4     0
##  6        1        6 -121.  35.4     0
##  7        1        7 -121.  35.4     0
##  8        1        8 -121.  35.4     0
##  9        1        9 -121.  35.4     0
## 10        1       10 -121.  35.4     0
## # ... with 61,343 more rows
```
…
